%YAML 1.1
%TAG !u! tag:unity3d.com,2011:
--- !u!114 &11400000
MonoBehaviour:
  m_ObjectHideFlags: 0
  m_PrefabParentObject: {fileID: 0}
  m_PrefabInternal: {fileID: 0}
  m_GameObject: {fileID: 0}
  m_Enabled: 1
  m_EditorHideFlags: 0
  m_Script: {fileID: 11500000, guid: d3b3b54c3f160400b96f3cb4b1675868, type: 3}
  m_Name: Shield1
  m_EditorClassIdentifier: 
  itemID: 221
  itemName: Shield
  itemPrice: 500
  armor: 0
  shield: 2
  shieldRegen: 0
  speed: 0
  fireRate: 0
  shieldDamage: 0
  armorDamage: 0
  itemImage: {fileID: 21300000, guid: ec8b4ac42e3fd4c19a62376ea9fe0bad, type: 3}
  itemVisual: {fileID: 1173972217734240, guid: b56c314aba7b5478c873119afdb8b84c, type: 2}
  itemPurchased: 0
  weaponType: 0
  itemType: 1
  itemRarity: 0
  itemShipType: Alpha
