# 3ds Max Wavefront OBJ Exporter v0.97b - (c)2007 guruware
# File Created: 15.02.2017 17:52:26

#
# object WINGS_LP
#

v  0.1640 0.0363 -0.1484
v  0.1919 0.0379 -0.1985
v  0.1191 0.0391 -0.2192
v  0.0961 0.0378 -0.1693
v  0.1386 0.0395 -0.2509
v  0.2218 0.0372 -0.2267
v  0.1480 0.0394 -0.2831
v  0.2866 0.0364 -0.2509
v  0.0687 0.0399 -0.3004
v  0.0598 0.0403 -0.2677
v  0.0451 0.0402 -0.2414
v  0.0228 0.0387 -0.1893
v  -0.0275 0.0405 -0.2571
v  -0.0376 0.0397 -0.2029
v  -0.0153 0.0395 -0.3162
v  -0.0245 0.0405 -0.2838
v  -0.1135 0.0406 -0.2470
v  -0.1068 0.0394 -0.2023
v  -0.0742 0.0396 -0.3221
v  -0.1092 0.0406 -0.2809
v  -0.1908 0.0407 -0.2244
v  -0.1822 0.0400 -0.1787
v  -0.1646 0.0401 -0.3032
v  -0.1795 0.0406 -0.2668
v  -0.2317 0.0404 -0.1315
v  -0.2836 0.0406 -0.1707
v  -0.2559 0.0399 -0.2690
v  -0.2550 0.0407 -0.2346
v  -0.2522 0.0394 -0.0999
v  -0.3074 0.0386 -0.0918
v  -0.3029 0.0397 -0.2417
v  -0.3291 0.0395 -0.2051
v  -0.3449 0.0397 -0.1723
v  -0.3618 0.0364 -0.1034
v  0.2937 0.0246 -0.2644
v  0.1580 0.0246 -0.2961
v  0.0737 0.0262 -0.3144
v  -0.0125 0.0257 -0.3307
v  -0.0741 0.0259 -0.3354
v  -0.1674 0.0261 -0.3190
v  -0.2617 0.0259 -0.2846
v  -0.3127 0.0247 -0.2526
v  -0.3408 0.0252 -0.2140
v  -0.3645 0.0232 -0.1664
v  -0.3876 0.0234 -0.1136
v  0.2930 0.0023 -0.2649
v  0.1566 0.0023 -0.2968
v  0.0729 0.0023 -0.3144
v  -0.0132 0.0023 -0.3310
v  -0.0731 0.0023 -0.3349
v  -0.1653 0.0023 -0.3202
v  -0.2616 0.0023 -0.2841
v  -0.3135 0.0023 -0.2526
v  -0.3440 0.0023 -0.2089
v  -0.3669 0.0023 -0.1640
v  -0.3873 0.0023 -0.1107
v  0.2890 0.0023 -0.2509
v  0.1957 0.0023 -0.1965
v  0.2348 0.0023 -0.2291
v  0.1622 0.0023 -0.1455
v  -0.3619 0.0269 -0.0898
v  -0.3089 0.0283 -0.0838
v  -0.3811 0.0172 -0.0923
v  -0.3828 0.0023 -0.0900
v  -0.2533 0.0252 -0.0893
v  -0.2367 0.0140 -0.1219
v  -0.1861 0.0198 -0.1728
v  -0.1087 0.0205 -0.1974
v  -0.0407 0.0207 -0.2001
v  0.0196 0.0200 -0.1867
v  0.0934 0.0192 -0.1664
v  0.1499 0.0202 -0.1513
v  0.1505 0.0023 -0.1498
v  -0.3550 0.0023 -0.0840
v  -0.3075 0.0023 -0.0806
v  -0.2510 0.0023 -0.0866
v  -0.2341 0.0023 -0.1203
v  -0.1075 0.0157 -0.1528
v  -0.0446 0.0162 -0.1619
v  0.0149 0.0167 -0.1515
v  0.0763 0.0186 -0.1331
v  0.1188 0.0188 -0.1195
v  -0.1130 0.0023 -0.1530
v  -0.0512 0.0023 -0.1610
v  0.0061 0.0023 -0.1527
v  0.0702 0.0023 -0.1365
v  0.1178 0.0023 -0.1212
v  0.1994 0.0023 -0.1073
v  0.2026 0.0204 -0.1072
v  0.1314 0.0191 -0.0856
v  0.1292 0.0023 -0.0874
v  0.1191 -0.0345 -0.2192
v  0.1919 -0.0333 -0.1985
v  0.1640 -0.0317 -0.1484
v  0.0961 -0.0332 -0.1693
v  0.1386 -0.0349 -0.2509
v  0.2218 -0.0326 -0.2267
v  0.1480 -0.0348 -0.2831
v  0.2866 -0.0318 -0.2509
v  0.0687 -0.0353 -0.3004
v  0.0598 -0.0357 -0.2677
v  0.0451 -0.0356 -0.2414
v  0.0228 -0.0341 -0.1893
v  -0.0275 -0.0359 -0.2571
v  -0.0376 -0.0351 -0.2029
v  -0.0153 -0.0349 -0.3162
v  -0.0245 -0.0359 -0.2838
v  -0.1135 -0.0360 -0.2470
v  -0.1068 -0.0348 -0.2023
v  -0.0742 -0.0350 -0.3221
v  -0.1092 -0.0360 -0.2809
v  -0.1908 -0.0361 -0.2244
v  -0.1822 -0.0354 -0.1787
v  -0.1646 -0.0355 -0.3032
v  -0.1795 -0.0360 -0.2668
v  -0.2317 -0.0358 -0.1315
v  -0.2836 -0.0360 -0.1707
v  -0.2559 -0.0353 -0.2690
v  -0.2550 -0.0361 -0.2346
v  -0.2522 -0.0348 -0.0999
v  -0.3074 -0.0340 -0.0918
v  -0.3029 -0.0351 -0.2417
v  -0.3291 -0.0349 -0.2051
v  -0.3449 -0.0351 -0.1723
v  -0.3618 -0.0318 -0.1034
v  0.1580 -0.0200 -0.2961
v  0.2937 -0.0200 -0.2644
v  0.0737 -0.0216 -0.3144
v  -0.0125 -0.0211 -0.3307
v  -0.0741 -0.0213 -0.3354
v  -0.1674 -0.0215 -0.3190
v  -0.2617 -0.0213 -0.2846
v  -0.3127 -0.0201 -0.2526
v  -0.3408 -0.0206 -0.2140
v  -0.3645 -0.0186 -0.1664
v  -0.3876 -0.0188 -0.1136
v  -0.3619 -0.0223 -0.0898
v  -0.3089 -0.0237 -0.0838
v  -0.3811 -0.0126 -0.0923
v  -0.2533 -0.0206 -0.0893
v  -0.2367 -0.0094 -0.1219
v  -0.1861 -0.0152 -0.1728
v  -0.1087 -0.0159 -0.1974
v  -0.0407 -0.0161 -0.2001
v  0.0196 -0.0154 -0.1867
v  0.0934 -0.0146 -0.1664
v  0.1499 -0.0156 -0.1513
v  -0.1075 -0.0111 -0.1528
v  -0.0446 -0.0116 -0.1619
v  0.0149 -0.0121 -0.1515
v  0.0763 -0.0140 -0.1331
v  0.1188 -0.0142 -0.1195
v  0.2026 -0.0158 -0.1072
v  0.1314 -0.0145 -0.0856
v  0.1640 -0.0363 0.1484
v  0.1919 -0.0379 0.1985
v  0.1191 -0.0391 0.2192
v  0.0961 -0.0378 0.1693
v  0.1386 -0.0395 0.2509
v  0.2218 -0.0372 0.2267
v  0.1480 -0.0394 0.2831
v  0.2866 -0.0364 0.2509
v  0.0687 -0.0399 0.3004
v  0.0598 -0.0403 0.2677
v  0.0451 -0.0402 0.2414
v  0.0228 -0.0387 0.1893
v  -0.0275 -0.0405 0.2571
v  -0.0376 -0.0397 0.2029
v  -0.0153 -0.0395 0.3162
v  -0.0245 -0.0405 0.2838
v  -0.1135 -0.0406 0.2470
v  -0.1068 -0.0394 0.2023
v  -0.0742 -0.0396 0.3221
v  -0.1092 -0.0406 0.2809
v  -0.1908 -0.0407 0.2244
v  -0.1822 -0.0400 0.1787
v  -0.1646 -0.0401 0.3032
v  -0.1795 -0.0406 0.2668
v  -0.2317 -0.0404 0.1315
v  -0.2836 -0.0406 0.1707
v  -0.2559 -0.0399 0.2690
v  -0.2550 -0.0407 0.2346
v  -0.2522 -0.0394 0.0999
v  -0.3074 -0.0386 0.0918
v  -0.3029 -0.0397 0.2417
v  -0.3291 -0.0395 0.2051
v  -0.3449 -0.0397 0.1723
v  -0.3618 -0.0364 0.1034
v  0.2937 -0.0246 0.2644
v  0.1580 -0.0246 0.2961
v  0.0737 -0.0262 0.3144
v  -0.0125 -0.0257 0.3307
v  -0.0741 -0.0259 0.3354
v  -0.1674 -0.0261 0.3190
v  -0.2617 -0.0259 0.2846
v  -0.3127 -0.0247 0.2526
v  -0.3408 -0.0252 0.2140
v  -0.3645 -0.0232 0.1664
v  -0.3876 -0.0234 0.1136
v  0.2930 -0.0023 0.2649
v  0.1566 -0.0023 0.2968
v  0.0729 -0.0023 0.3144
v  -0.0132 -0.0023 0.3310
v  -0.0731 -0.0023 0.3349
v  -0.1653 -0.0023 0.3202
v  -0.2616 -0.0023 0.2841
v  -0.3135 -0.0023 0.2526
v  -0.3440 -0.0023 0.2089
v  -0.3669 -0.0023 0.1640
v  -0.3873 -0.0023 0.1107
v  0.2890 -0.0023 0.2509
v  0.1957 -0.0023 0.1965
v  0.2348 -0.0023 0.2291
v  0.1622 -0.0023 0.1455
v  -0.3619 -0.0269 0.0898
v  -0.3089 -0.0283 0.0838
v  -0.3811 -0.0172 0.0923
v  -0.3828 -0.0023 0.0900
v  -0.2533 -0.0252 0.0893
v  -0.2367 -0.0140 0.1219
v  -0.1861 -0.0198 0.1728
v  -0.1087 -0.0205 0.1974
v  -0.0407 -0.0207 0.2001
v  0.0196 -0.0200 0.1867
v  0.0934 -0.0192 0.1664
v  0.1499 -0.0202 0.1513
v  0.1505 -0.0023 0.1498
v  -0.3550 -0.0023 0.0840
v  -0.3075 -0.0023 0.0806
v  -0.2510 -0.0023 0.0866
v  -0.2341 -0.0023 0.1203
v  -0.1075 -0.0157 0.1528
v  -0.0446 -0.0162 0.1619
v  0.0149 -0.0167 0.1515
v  0.0763 -0.0186 0.1331
v  0.1188 -0.0188 0.1195
v  -0.1130 -0.0023 0.1530
v  -0.0512 -0.0023 0.1610
v  0.0061 -0.0023 0.1527
v  0.0702 -0.0023 0.1365
v  0.1178 -0.0023 0.1212
v  0.1994 -0.0023 0.1073
v  0.2026 -0.0204 0.1072
v  0.1314 -0.0191 0.0856
v  0.1292 -0.0023 0.0874
v  0.1191 0.0345 0.2192
v  0.1919 0.0333 0.1985
v  0.1640 0.0317 0.1484
v  0.0961 0.0332 0.1693
v  0.1386 0.0349 0.2509
v  0.2218 0.0326 0.2267
v  0.1480 0.0348 0.2831
v  0.2866 0.0318 0.2509
v  0.0687 0.0353 0.3004
v  0.0598 0.0357 0.2677
v  0.0451 0.0356 0.2414
v  0.0228 0.0341 0.1893
v  -0.0275 0.0359 0.2571
v  -0.0376 0.0351 0.2029
v  -0.0153 0.0349 0.3162
v  -0.0245 0.0359 0.2838
v  -0.1135 0.0360 0.2470
v  -0.1068 0.0348 0.2023
v  -0.0742 0.0350 0.3221
v  -0.1092 0.0360 0.2809
v  -0.1908 0.0361 0.2244
v  -0.1822 0.0354 0.1787
v  -0.1646 0.0355 0.3032
v  -0.1795 0.0360 0.2668
v  -0.2317 0.0358 0.1315
v  -0.2836 0.0360 0.1707
v  -0.2559 0.0353 0.2690
v  -0.2550 0.0361 0.2346
v  -0.2522 0.0348 0.0999
v  -0.3074 0.0340 0.0918
v  -0.3029 0.0351 0.2417
v  -0.3291 0.0349 0.2051
v  -0.3449 0.0351 0.1723
v  -0.3618 0.0318 0.1034
v  0.1580 0.0200 0.2961
v  0.2937 0.0200 0.2644
v  0.0737 0.0216 0.3144
v  -0.0125 0.0211 0.3307
v  -0.0741 0.0213 0.3354
v  -0.1674 0.0215 0.3190
v  -0.2617 0.0213 0.2846
v  -0.3127 0.0201 0.2526
v  -0.3408 0.0206 0.2140
v  -0.3645 0.0186 0.1664
v  -0.3876 0.0188 0.1136
v  -0.3619 0.0223 0.0898
v  -0.3089 0.0237 0.0838
v  -0.3811 0.0126 0.0923
v  -0.2533 0.0206 0.0893
v  -0.2367 0.0094 0.1219
v  -0.1861 0.0152 0.1728
v  -0.1087 0.0159 0.1974
v  -0.0407 0.0161 0.2001
v  0.0196 0.0154 0.1867
v  0.0934 0.0146 0.1664
v  0.1499 0.0156 0.1513
v  -0.1075 0.0111 0.1528
v  -0.0446 0.0116 0.1619
v  0.0149 0.0121 0.1515
v  0.0763 0.0140 0.1331
v  0.1188 0.0142 0.1195
v  0.2026 0.0158 0.1072
v  0.1314 0.0145 0.0856
# 308 vertices

vn 0.2993 0.6017 0.7406
vn 0.4959 0.7763 0.3891
vn 0.0086 0.9997 0.0242
vn -0.1608 0.7620 0.6273
vn 0.0144 0.9999 0.0080
vn 0.3464 0.7844 0.5145
vn 0.0980 0.9252 -0.3667
vn 0.5965 0.7478 0.2915
vn 0.0754 0.9276 -0.3658
vn 0.0063 1.0000 -0.0020
vn 0.0040 0.9998 0.0175
vn -0.1499 0.7623 0.6296
vn 0.0035 1.0000 0.0087
vn -0.0653 0.7821 0.6198
vn 0.0519 0.9205 -0.3874
vn 0.0039 0.9999 -0.0146
vn 0.0020 0.9999 0.0111
vn 0.0932 0.8023 0.5896
vn -0.0161 0.9036 -0.4282
vn 0.0003 0.9999 -0.0117
vn 0.0050 1.0000 0.0052
vn 0.2862 0.8047 0.5201
vn -0.1030 0.9275 -0.3594
vn -0.0035 0.9999 -0.0101
vn 0.4818 0.7641 0.4290
vn -0.0108 0.9999 0.0067
vn -0.1614 0.9288 -0.3336
vn -0.0095 0.9999 -0.0108
vn 0.4485 0.7595 0.4712
vn -0.0086 0.8790 0.4768
vn -0.2980 0.9018 -0.3128
vn -0.3487 0.9146 -0.2049
vn -0.3858 0.9131 -0.1320
vn -0.3111 0.9199 0.2386
vn 0.8109 0.3660 -0.4565
vn 0.2099 0.3933 -0.8951
vn 0.1824 0.3972 -0.8994
vn 0.1197 0.3940 -0.9113
vn -0.0384 0.3595 -0.9324
vn -0.2439 0.4123 -0.8778
vn -0.4005 0.3979 -0.8254
vn -0.6313 0.3684 -0.6824
vn -0.7893 0.3845 -0.4787
vn -0.8348 0.4327 -0.3403
vn -0.8678 0.4963 -0.0238
vn 0.8536 0.0000 -0.5209
vn 0.2192 0.0000 -0.9757
vn 0.1959 0.0000 -0.9806
vn 0.1262 0.0000 -0.9920
vn -0.0392 0.0000 -0.9992
vn -0.2564 -0.0000 -0.9666
vn -0.4388 0.0000 -0.8986
vn -0.6813 0.0000 -0.7320
vn -0.8656 0.0000 -0.5007
vn -0.9074 -0.0000 -0.4203
vn -0.9998 -0.0000 -0.0211
vn 0.7318 0.0000 0.6815
vn 0.7710 0.0000 0.6369
vn 0.4740 0.0000 0.8805
vn 0.2933 0.0000 0.9560
vn -0.2576 0.5445 0.7983
vn 0.0013 0.3875 0.9219
vn -0.6473 0.3791 0.6612
vn -0.7003 -0.0000 0.7138
vn 0.5260 0.3215 0.7874
vn 0.7155 0.2506 0.6521
vn 0.3878 0.6643 0.6390
vn 0.1230 0.7250 0.6777
vn -0.0626 0.7004 0.7110
vn -0.1664 0.7327 0.6599
vn -0.1689 0.7663 0.6199
vn -0.1082 0.6711 0.7334
vn 0.8790 0.0000 0.4769
vn -0.1486 0.0000 0.9889
vn 0.0200 0.0000 0.9998
vn 0.5845 -0.0000 0.8114
vn 0.6140 -0.0000 0.7893
vn 0.1271 0.6475 0.7514
vn -0.0308 0.7272 0.6857
vn -0.1749 0.6974 0.6951
vn -0.2223 0.6704 0.7079
vn -0.4358 0.8043 0.4038
vn 0.1949 -0.0000 0.9808
vn 0.0395 -0.0000 0.9992
vn -0.1936 -0.0000 0.9811
vn -0.2894 0.0000 0.9572
vn -0.6780 0.0000 0.7350
vn 0.9753 0.0000 0.2209
vn 0.8530 0.4960 0.1622
vn -0.3270 0.5573 0.7632
vn -0.5195 -0.0000 0.8545
vn 0.0086 -0.9997 0.0242
vn 0.4959 -0.7763 0.3891
vn 0.2993 -0.6017 0.7406
vn -0.1608 -0.7620 0.6273
vn 0.0144 -0.9999 0.0080
vn 0.3464 -0.7844 0.5145
vn 0.0980 -0.9252 -0.3667
vn 0.5965 -0.7478 0.2915
vn 0.0754 -0.9276 -0.3658
vn 0.0063 -1.0000 -0.0020
vn 0.0040 -0.9998 0.0175
vn -0.1499 -0.7623 0.6296
vn 0.0035 -1.0000 0.0087
vn -0.0653 -0.7821 0.6198
vn 0.0519 -0.9205 -0.3874
vn 0.0039 -0.9999 -0.0146
vn 0.0020 -0.9999 0.0111
vn 0.0932 -0.8023 0.5896
vn -0.0161 -0.9036 -0.4282
vn 0.0003 -0.9999 -0.0117
vn 0.0050 -1.0000 0.0052
vn 0.2862 -0.8047 0.5201
vn -0.1030 -0.9275 -0.3594
vn -0.0035 -0.9999 -0.0101
vn 0.4818 -0.7641 0.4290
vn -0.0108 -0.9999 0.0067
vn -0.1614 -0.9288 -0.3336
vn -0.0095 -0.9999 -0.0108
vn 0.4485 -0.7595 0.4712
vn -0.0086 -0.8790 0.4768
vn -0.2980 -0.9018 -0.3128
vn -0.3487 -0.9146 -0.2049
vn -0.3858 -0.9131 -0.1320
vn -0.3111 -0.9199 0.2386
vn 0.2099 -0.3933 -0.8951
vn 0.8109 -0.3660 -0.4565
vn 0.1824 -0.3972 -0.8994
vn 0.1197 -0.3940 -0.9113
vn -0.0384 -0.3595 -0.9324
vn -0.2439 -0.4123 -0.8778
vn -0.4005 -0.3979 -0.8254
vn -0.6313 -0.3684 -0.6824
vn -0.7893 -0.3845 -0.4787
vn -0.8348 -0.4327 -0.3403
vn -0.8678 -0.4963 -0.0238
vn -0.2576 -0.5445 0.7983
vn 0.0013 -0.3875 0.9219
vn -0.6473 -0.3791 0.6612
vn 0.5260 -0.3215 0.7874
vn 0.7155 -0.2506 0.6521
vn 0.3878 -0.6643 0.6390
vn 0.1230 -0.7250 0.6777
vn -0.0626 -0.7004 0.7110
vn -0.1664 -0.7327 0.6599
vn -0.1689 -0.7663 0.6199
vn -0.1082 -0.6711 0.7334
vn 0.1271 -0.6475 0.7514
vn -0.0308 -0.7272 0.6857
vn -0.1749 -0.6974 0.6951
vn -0.2223 -0.6704 0.7079
vn -0.4358 -0.8043 0.4038
vn 0.8530 -0.4960 0.1622
vn -0.3270 -0.5573 0.7632
vn 0.2993 -0.6017 -0.7406
vn 0.4959 -0.7763 -0.3891
vn 0.0086 -0.9997 -0.0242
vn -0.1608 -0.7620 -0.6273
vn 0.0144 -0.9999 -0.0080
vn 0.3464 -0.7844 -0.5145
vn 0.0980 -0.9252 0.3667
vn 0.5965 -0.7478 -0.2915
vn 0.0754 -0.9276 0.3658
vn 0.0063 -1.0000 0.0020
vn 0.0040 -0.9998 -0.0175
vn -0.1499 -0.7623 -0.6296
vn 0.0035 -1.0000 -0.0087
vn -0.0653 -0.7821 -0.6198
vn 0.0519 -0.9205 0.3874
vn 0.0039 -0.9999 0.0146
vn 0.0020 -0.9999 -0.0111
vn 0.0932 -0.8023 -0.5896
vn -0.0161 -0.9036 0.4282
vn 0.0003 -0.9999 0.0117
vn 0.0050 -1.0000 -0.0052
vn 0.2862 -0.8047 -0.5201
vn -0.1030 -0.9275 0.3594
vn -0.0035 -0.9999 0.0101
vn 0.4818 -0.7641 -0.4290
vn -0.0108 -0.9999 -0.0067
vn -0.1614 -0.9288 0.3336
vn -0.0095 -0.9999 0.0108
vn 0.4485 -0.7595 -0.4712
vn -0.0086 -0.8790 -0.4768
vn -0.2980 -0.9018 0.3128
vn -0.3487 -0.9146 0.2049
vn -0.3858 -0.9131 0.1320
vn -0.3111 -0.9199 -0.2386
vn 0.8109 -0.3660 0.4565
vn 0.2099 -0.3933 0.8951
vn 0.1824 -0.3972 0.8994
vn 0.1197 -0.3940 0.9113
vn -0.0384 -0.3595 0.9324
vn -0.2439 -0.4123 0.8778
vn -0.4005 -0.3979 0.8254
vn -0.6313 -0.3684 0.6824
vn -0.7893 -0.3845 0.4787
vn -0.8348 -0.4327 0.3403
vn -0.8678 -0.4963 0.0238
vn 0.8536 -0.0000 0.5209
vn 0.2192 0.0000 0.9757
vn 0.1959 -0.0000 0.9806
vn 0.1262 0.0000 0.9920
vn -0.0392 -0.0000 0.9992
vn -0.2564 0.0000 0.9666
vn -0.4388 -0.0000 0.8986
vn -0.6813 0.0000 0.7320
vn -0.8656 0.0000 0.5007
vn -0.9074 0.0000 0.4203
vn -0.9998 0.0000 0.0211
vn 0.7318 0.0000 -0.6815
vn 0.7710 0.0000 -0.6369
vn 0.4740 0.0000 -0.8805
vn 0.2933 0.0000 -0.9560
vn -0.2576 -0.5445 -0.7983
vn 0.0013 -0.3875 -0.9219
vn -0.6473 -0.3791 -0.6612
vn -0.7003 0.0000 -0.7138
vn 0.5260 -0.3215 -0.7874
vn 0.7155 -0.2506 -0.6521
vn 0.3878 -0.6643 -0.6390
vn 0.1230 -0.7250 -0.6777
vn -0.0626 -0.7004 -0.7110
vn -0.1664 -0.7327 -0.6599
vn -0.1689 -0.7663 -0.6199
vn -0.1082 -0.6711 -0.7334
vn 0.8790 0.0000 -0.4769
vn -0.1486 0.0000 -0.9889
vn 0.0200 0.0000 -0.9998
vn 0.5845 0.0000 -0.8114
vn 0.6140 0.0000 -0.7893
vn 0.1271 -0.6475 -0.7514
vn -0.0308 -0.7272 -0.6857
vn -0.1749 -0.6974 -0.6951
vn -0.2223 -0.6704 -0.7079
vn -0.4358 -0.8043 -0.4038
vn 0.1949 -0.0000 -0.9808
vn 0.0395 0.0000 -0.9992
vn -0.1936 0.0000 -0.9811
vn -0.2894 -0.0000 -0.9572
vn -0.6780 -0.0000 -0.7350
vn 0.9753 -0.0000 -0.2209
vn 0.8530 -0.4960 -0.1622
vn -0.3270 -0.5573 -0.7632
vn -0.5195 -0.0000 -0.8545
vn 0.0086 0.9997 -0.0242
vn 0.4959 0.7763 -0.3891
vn 0.2993 0.6017 -0.7406
vn -0.1608 0.7620 -0.6273
vn 0.0144 0.9999 -0.0080
vn 0.3464 0.7844 -0.5145
vn 0.0980 0.9252 0.3667
vn 0.5965 0.7478 -0.2915
vn 0.0754 0.9276 0.3658
vn 0.0063 1.0000 0.0020
vn 0.0040 0.9998 -0.0175
vn -0.1499 0.7623 -0.6296
vn 0.0035 1.0000 -0.0087
vn -0.0653 0.7821 -0.6198
vn 0.0519 0.9205 0.3874
vn 0.0039 0.9999 0.0146
vn 0.0020 0.9999 -0.0111
vn 0.0932 0.8023 -0.5896
vn -0.0161 0.9036 0.4282
vn 0.0003 0.9999 0.0117
vn 0.0050 1.0000 -0.0052
vn 0.2862 0.8047 -0.5201
vn -0.1030 0.9275 0.3594
vn -0.0035 0.9999 0.0101
vn 0.4818 0.7641 -0.4290
vn -0.0108 0.9999 -0.0067
vn -0.1614 0.9288 0.3336
vn -0.0095 0.9999 0.0108
vn 0.4485 0.7595 -0.4712
vn -0.0086 0.8790 -0.4768
vn -0.2980 0.9018 0.3128
vn -0.3487 0.9146 0.2049
vn -0.3858 0.9131 0.1320
vn -0.3111 0.9199 -0.2386
vn 0.2099 0.3933 0.8951
vn 0.8109 0.3660 0.4565
vn 0.1824 0.3972 0.8994
vn 0.1197 0.3940 0.9113
vn -0.0384 0.3595 0.9324
vn -0.2439 0.4123 0.8778
vn -0.4005 0.3979 0.8254
vn -0.6313 0.3684 0.6824
vn -0.7893 0.3845 0.4787
vn -0.8348 0.4327 0.3403
vn -0.8678 0.4963 0.0238
vn -0.2576 0.5445 -0.7983
vn 0.0013 0.3875 -0.9219
vn -0.6473 0.3791 -0.6612
vn 0.5260 0.3215 -0.7874
vn 0.7155 0.2506 -0.6521
vn 0.3878 0.6643 -0.6390
vn 0.1230 0.7250 -0.6777
vn -0.0626 0.7004 -0.7110
vn -0.1664 0.7327 -0.6599
vn -0.1689 0.7663 -0.6199
vn -0.1082 0.6711 -0.7334
vn 0.1271 0.6475 -0.7514
vn -0.0308 0.7272 -0.6857
vn -0.1749 0.6974 -0.6951
vn -0.2223 0.6704 -0.7079
vn -0.4358 0.8043 -0.4038
vn 0.8530 0.4960 -0.1622
vn -0.3270 0.5573 -0.7632
# 308 vertex normals

vt 0.2143 0.6902 0.0000
vt 0.1389 0.7083 0.0000
vt 0.1380 0.6060 0.0000
vt 0.2113 0.5942 0.0000
vt 0.0893 0.6194 0.0000
vt 0.0927 0.7365 0.0000
vt 0.0425 0.6202 0.0000
vt 0.0432 0.8128 0.0000
vt 0.0495 0.5101 0.0000
vt 0.0956 0.5109 0.0000
vt 0.1354 0.5019 0.0000
vt 0.2114 0.4920 0.0000
vt 0.1409 0.4021 0.0000
vt 0.2151 0.4104 0.0000
vt 0.0597 0.3940 0.0000
vt 0.1051 0.3952 0.0000
vt 0.1902 0.2965 0.0000
vt 0.2444 0.3244 0.0000
vt 0.0768 0.3149 0.0000
vt 0.1449 0.2876 0.0000
vt 0.2541 0.2090 0.0000
vt 0.3085 0.2409 0.0000
vt 0.1411 0.2072 0.0000
vt 0.1946 0.2045 0.0000
vt 0.3919 0.2007 0.0000
vt 0.3656 0.1169 0.0000
vt 0.2282 0.1077 0.0000
vt 0.2711 0.1243 0.0000
vt 0.4421 0.1885 0.0000
vt 0.4768 0.1218 0.0000
vt 0.2847 0.0610 0.0000
vt 0.3428 0.0439 0.0000
vt 0.3912 0.0383 0.0000
vt 0.4859 0.0479 0.0000
vt 0.0201 0.8185 0.0000
vt 0.0130 0.6289 0.0000
vt 0.0221 0.5107 0.0000
vt 0.0327 0.3906 0.0000
vt 0.0524 0.3065 0.0000
vt 0.1165 0.1922 0.0000
vt 0.2067 0.0882 0.0000
vt 0.2715 0.0362 0.0000
vt 0.3350 0.0173 0.0000
vt 0.4079 0.0072 0.0000
vt 0.4873 0.0072 0.0000
vt 0.8905 0.9932 0.0000
vt 0.8893 0.8584 0.0000
vt 0.8599 0.8594 0.0000
vt 0.8611 0.9935 0.0000
vt 0.8587 0.7768 0.0000
vt 0.8886 0.7757 0.0000
vt 0.8878 0.6906 0.0000
vt 0.8586 0.6916 0.0000
vt 0.8873 0.6314 0.0000
vt 0.8578 0.6307 0.0000
vt 0.8865 0.5403 0.0000
vt 0.8590 0.5391 0.0000
vt 0.8857 0.4579 0.0000
vt 0.8578 0.4587 0.0000
vt 0.8572 0.3949 0.0000
vt 0.8852 0.3938 0.0000
vt 0.8874 0.3292 0.0000
vt 0.8578 0.3295 0.0000
vt 0.8867 0.2743 0.0000
vt 0.8583 0.2746 0.0000
vt 0.8572 0.2194 0.0000
vt 0.8876 0.2188 0.0000
vt 0.3863 0.3986 0.0000
vt 0.3891 0.3686 0.0000
vt 0.3593 0.3660 0.0000
vt 0.3559 0.3955 0.0000
vt 0.3796 0.4664 0.0000
vt 0.3832 0.4281 0.0000
vt 0.3533 0.4280 0.0000
vt 0.3495 0.4611 0.0000
vt 0.3450 0.4971 0.0000
vt 0.3750 0.5034 0.0000
vt 0.5073 0.0520 0.0000
vt 0.4941 0.1248 0.0000
vt 0.5153 0.0227 0.0000
vt 0.8560 0.1638 0.0000
vt 0.8855 0.1637 0.0000
vt 0.4652 0.1958 0.0000
vt 0.0797 0.1412 0.0000
vt 0.1098 0.1383 0.0000
vt 0.1020 0.1702 0.0000
vt 0.0842 0.1753 0.0000
vt 0.5906 0.5375 0.0000
vt 0.6302 0.5422 0.0000
vt 0.6160 0.5947 0.0000
vt 0.5544 0.5761 0.0000
vt 0.6032 0.4321 0.0000
vt 0.6349 0.4416 0.0000
vt 0.6121 0.3518 0.0000
vt 0.6440 0.3578 0.0000
vt 0.6219 0.3028 0.0000
vt 0.6494 0.3031 0.0000
vt 0.6304 0.2458 0.0000
vt 0.6584 0.2467 0.0000
vt 0.6393 0.1968 0.0000
vt 0.6649 0.1898 0.0000
vt 0.3410 0.5422 0.0000
vt 0.3698 0.5462 0.0000
vt 0.0501 0.2839 0.0000
vt 0.0335 0.2812 0.0000
vt 0.0391 0.2572 0.0000
vt 0.0645 0.2697 0.0000
vt 0.0484 0.2169 0.0000
vt 0.0765 0.2245 0.0000
vt 0.0594 0.1695 0.0000
vt 0.0668 0.1381 0.0000
vt 0.5781 0.4343 0.0000
vt 0.5905 0.3543 0.0000
vt 0.5988 0.3032 0.0000
vt 0.6108 0.2485 0.0000
vt 0.6119 0.2112 0.0000
vt 0.5434 0.4391 0.0000
vt 0.5237 0.5694 0.0000
vt 0.5580 0.3582 0.0000
vt 0.5652 0.3066 0.0000
vt 0.5733 0.2489 0.0000
vt 0.5793 0.2060 0.0000
vt 0.3668 0.5857 0.0000
vt 0.3373 0.5832 0.0000
vt 0.6098 0.1713 0.0000
vt 0.6340 0.1539 0.0000
vt 0.5848 0.1691 0.0000
vt 0.5877 0.1413 0.0000
vt 0.3003 0.7296 0.0000
vt 0.2524 0.7225 0.0000
vt 0.2659 0.6884 0.0000
vt 0.3107 0.6961 0.0000
vt 0.2905 0.7514 0.0000
vt 0.2358 0.7429 0.0000
vt 0.2873 0.7726 0.0000
vt 0.1967 0.7637 0.0000
vt 0.3389 0.7770 0.0000
vt 0.3419 0.7555 0.0000
vt 0.3490 0.7376 0.0000
vt 0.3589 0.7027 0.0000
vt 0.3963 0.7416 0.0000
vt 0.3984 0.7064 0.0000
vt 0.3934 0.7801 0.0000
vt 0.3966 0.7588 0.0000
vt 0.4501 0.7283 0.0000
vt 0.4423 0.7004 0.0000
vt 0.4310 0.7790 0.0000
vt 0.4500 0.7501 0.0000
vt 0.4974 0.7081 0.0000
vt 0.4886 0.6797 0.0000
vt 0.4868 0.7601 0.0000
vt 0.4934 0.7359 0.0000
vt 0.5168 0.6460 0.0000
vt 0.5524 0.6674 0.0000
vt 0.5422 0.7318 0.0000
vt 0.5389 0.7101 0.0000
vt 0.5279 0.6244 0.0000
vt 0.5624 0.6158 0.0000
vt 0.5696 0.7108 0.0000
vt 0.5837 0.6858 0.0000
vt 0.5914 0.6642 0.0000
vt 0.5973 0.6197 0.0000
vt 0.2815 0.7855 0.0000
vt 0.1929 0.7754 0.0000
vt 0.3367 0.7897 0.0000
vt 0.3928 0.7930 0.0000
vt 0.4327 0.7910 0.0000
vt 0.4911 0.7731 0.0000
vt 0.5489 0.7439 0.0000
vt 0.5796 0.7195 0.0000
vt 0.5951 0.6923 0.0000
vt 0.6075 0.6599 0.0000
vt 0.6162 0.6234 0.0000
vt 0.9207 0.9930 0.0000
vt 0.9187 0.8582 0.0000
vt 0.9185 0.7762 0.0000
vt 0.9171 0.6911 0.0000
vt 0.9168 0.6302 0.0000
vt 0.9162 0.5380 0.0000
vt 0.9145 0.4576 0.0000
vt 0.9139 0.3950 0.0000
vt 0.9148 0.3284 0.0000
vt 0.9156 0.2732 0.0000
vt 0.9162 0.2183 0.0000
vt 0.4167 0.4018 0.0000
vt 0.4188 0.3735 0.0000
vt 0.4102 0.4669 0.0000
vt 0.4136 0.4315 0.0000
vt 0.4062 0.5045 0.0000
vt 0.5978 0.6093 0.0000
vt 0.5629 0.6075 0.0000
vt 0.6121 0.6089 0.0000
vt 0.9155 0.1634 0.0000
vt 0.5271 0.6129 0.0000
vt 0.0535 0.1352 0.0000
vt 0.0347 0.1641 0.0000
vt 0.0208 0.1521 0.0000
vt 0.0270 0.1199 0.0000
vt 0.4706 0.5148 0.0000
vt 0.4959 0.5697 0.0000
vt 0.4312 0.5623 0.0000
vt 0.4330 0.4948 0.0000
vt 0.4858 0.4341 0.0000
vt 0.4510 0.4098 0.0000
vt 0.4973 0.3375 0.0000
vt 0.4675 0.3350 0.0000
vt 0.4774 0.2810 0.0000
vt 0.5040 0.2831 0.0000
vt 0.4857 0.2180 0.0000
vt 0.5149 0.2274 0.0000
vt 0.5189 0.1803 0.0000
vt 0.4876 0.1695 0.0000
vt 0.4011 0.5493 0.0000
vt 0.0173 0.2764 0.0000
vt 0.0106 0.2575 0.0000
vt 0.0198 0.2116 0.0000
vt 0.5126 0.4396 0.0000
vt 0.5275 0.3479 0.0000
vt 0.5339 0.2942 0.0000
vt 0.5373 0.2383 0.0000
vt 0.5422 0.1999 0.0000
vt 0.3973 0.5899 0.0000
vt 0.5505 0.1629 0.0000
vt 0.5341 0.1393 0.0000
vt 0.3173 0.5529 0.0000
vt 0.2815 0.5608 0.0000
vt 0.2822 0.5123 0.0000
vt 0.3171 0.5075 0.0000
vt 0.2592 0.5184 0.0000
vt 0.2587 0.5739 0.0000
vt 0.2378 0.5182 0.0000
vt 0.2318 0.6090 0.0000
vt 0.2418 0.4665 0.0000
vt 0.2635 0.4671 0.0000
vt 0.2823 0.4629 0.0000
vt 0.3183 0.4589 0.0000
vt 0.2860 0.4156 0.0000
vt 0.3211 0.4193 0.0000
vt 0.2476 0.4122 0.0000
vt 0.2691 0.4126 0.0000
vt 0.3079 0.3648 0.0000
vt 0.3341 0.3770 0.0000
vt 0.2548 0.3753 0.0000
vt 0.2863 0.3613 0.0000
vt 0.3355 0.3214 0.0000
vt 0.3621 0.3348 0.0000
vt 0.2825 0.3234 0.0000
vt 0.3074 0.3207 0.0000
vt 0.4000 0.3124 0.0000
vt 0.3847 0.2738 0.0000
vt 0.3195 0.2734 0.0000
vt 0.3404 0.2801 0.0000
vt 0.4231 0.3050 0.0000
vt 0.4373 0.2724 0.0000
vt 0.3448 0.2497 0.0000
vt 0.3716 0.2399 0.0000
vt 0.3942 0.2358 0.0000
vt 0.4392 0.2373 0.0000
vt 0.2196 0.6109 0.0000
vt 0.2241 0.5218 0.0000
vt 0.2289 0.4667 0.0000
vt 0.2347 0.4107 0.0000
vt 0.2432 0.3717 0.0000
vt 0.2704 0.3170 0.0000
vt 0.3086 0.2648 0.0000
vt 0.3378 0.2384 0.0000
vt 0.3671 0.2276 0.0000
vt 0.4011 0.2206 0.0000
vt 0.4385 0.2181 0.0000
vt 0.9606 0.9951 0.0000
vt 0.9601 0.8595 0.0000
vt 0.9905 0.8597 0.0000
vt 0.9909 0.9948 0.0000
vt 0.9894 0.7797 0.0000
vt 0.9602 0.7794 0.0000
vt 0.9584 0.6914 0.0000
vt 0.9869 0.6917 0.0000
vt 0.9589 0.6317 0.0000
vt 0.9877 0.6306 0.0000
vt 0.9581 0.5396 0.0000
vt 0.9871 0.5378 0.0000
vt 0.9563 0.4541 0.0000
vt 0.9851 0.4537 0.0000
vt 0.9847 0.3934 0.0000
vt 0.9573 0.3931 0.0000
vt 0.9568 0.3301 0.0000
vt 0.9847 0.3297 0.0000
vt 0.9569 0.2680 0.0000
vt 0.9861 0.2680 0.0000
vt 0.9867 0.2137 0.0000
vt 0.9573 0.2156 0.0000
vt 0.4251 0.6396 0.0000
vt 0.4663 0.6390 0.0000
vt 0.4651 0.6671 0.0000
vt 0.4253 0.6689 0.0000
vt 0.3500 0.6401 0.0000
vt 0.3880 0.6407 0.0000
vt 0.3883 0.6679 0.0000
vt 0.3500 0.6679 0.0000
vt 0.3139 0.6686 0.0000
vt 0.3135 0.6400 0.0000
vt 0.4494 0.2385 0.0000
vt 0.4455 0.2733 0.0000
vt 0.4522 0.2245 0.0000
vt 0.9868 0.1581 0.0000
vt 0.9572 0.1590 0.0000
vt 0.4343 0.3077 0.0000
vt 0.0851 0.0577 0.0000
vt 0.0689 0.0361 0.0000
vt 0.1011 0.0273 0.0000
vt 0.1139 0.0384 0.0000
vt 0.7067 0.0833 0.0000
vt 0.6761 0.0622 0.0000
vt 0.6803 0.0263 0.0000
vt 0.7330 0.0386 0.0000
vt 0.7060 0.1653 0.0000
vt 0.6759 0.1699 0.0000
vt 0.7021 0.2395 0.0000
vt 0.6758 0.2439 0.0000
vt 0.7074 0.3155 0.0000
vt 0.6779 0.3191 0.0000
vt 0.7067 0.3944 0.0000
vt 0.6773 0.3964 0.0000
vt 0.7050 0.4541 0.0000
vt 0.6755 0.4564 0.0000
vt 0.2771 0.6674 0.0000
vt 0.2776 0.6411 0.0000
vt 0.2211 0.0148 0.0000
vt 0.2316 0.0320 0.0000
vt 0.1983 0.0407 0.0000
vt 0.1936 0.0110 0.0000
vt 0.1678 0.0497 0.0000
vt 0.1597 0.0206 0.0000
vt 0.1210 0.0637 0.0000
vt 0.0895 0.0730 0.0000
vt 0.7393 0.1656 0.0000
vt 0.7356 0.2317 0.0000
vt 0.7359 0.3057 0.0000
vt 0.7368 0.3857 0.0000
vt 0.7360 0.4321 0.0000
vt 0.7625 0.1715 0.0000
vt 0.7637 0.0356 0.0000
vt 0.7625 0.2267 0.0000
vt 0.7615 0.2976 0.0000
vt 0.7627 0.3801 0.0000
vt 0.7605 0.4350 0.0000
vt 0.2462 0.6406 0.0000
vt 0.2463 0.6672 0.0000
vt 0.7350 0.4824 0.0000
vt 0.7155 0.5090 0.0000
vt 0.7622 0.4788 0.0000
vt 0.7591 0.5139 0.0000
vt 0.2352 0.8663 0.0000
vt 0.1335 0.8594 0.0000
vt 0.1558 0.7855 0.0000
vt 0.2511 0.7939 0.0000
vt 0.2190 0.9139 0.0000
vt 0.1027 0.9038 0.0000
vt 0.2156 0.9604 0.0000
vt 0.0240 0.9487 0.0000
vt 0.3254 0.9597 0.0000
vt 0.3273 0.9138 0.0000
vt 0.3385 0.8748 0.0000
vt 0.3527 0.7997 0.0000
vt 0.4381 0.8750 0.0000
vt 0.4341 0.8008 0.0000
vt 0.4415 0.9563 0.0000
vt 0.4430 0.9110 0.0000
vt 0.5460 0.8321 0.0000
vt 0.5213 0.7765 0.0000
vt 0.5212 0.9437 0.0000
vt 0.5522 0.8776 0.0000
vt 0.6367 0.7735 0.0000
vt 0.6081 0.7176 0.0000
vt 0.6320 0.8860 0.0000
vt 0.6378 0.8329 0.0000
vt 0.6529 0.6370 0.0000
vt 0.7346 0.6679 0.0000
vt 0.7360 0.8051 0.0000
vt 0.7219 0.7614 0.0000
vt 0.6678 0.5877 0.0000
vt 0.7362 0.5570 0.0000
vt 0.7857 0.7515 0.0000
vt 0.8060 0.6947 0.0000
vt 0.8144 0.6469 0.0000
vt 0.8102 0.5522 0.0000
vt 0.2052 0.9892 0.0000
vt 0.0170 0.9713 0.0000
vt 0.3232 0.9870 0.0000
vt 0.4434 0.9833 0.0000
vt 0.5282 0.9685 0.0000
vt 0.6455 0.9113 0.0000
vt 0.7541 0.8276 0.0000
vt 0.8096 0.7661 0.0000
vt 0.8321 0.7040 0.0000
vt 0.8462 0.6321 0.0000
vt 0.8508 0.5531 0.0000
vt 0.9326 0.9959 0.0000
vt 0.9306 0.8602 0.0000
vt 0.9311 0.7802 0.0000
vt 0.9299 0.6922 0.0000
vt 0.9301 0.6312 0.0000
vt 0.9291 0.5383 0.0000
vt 0.9275 0.4542 0.0000
vt 0.9276 0.3939 0.0000
vt 0.9289 0.3302 0.0000
vt 0.9290 0.2677 0.0000
vt 0.9296 0.2150 0.0000
vt 0.4279 0.6130 0.0000
vt 0.4670 0.6144 0.0000
vt 0.3503 0.6142 0.0000
vt 0.3873 0.6131 0.0000
vt 0.3134 0.6132 0.0000
vt 0.8029 0.5267 0.0000
vt 0.7329 0.5338 0.0000
vt 0.8495 0.5205 0.0000
vt 0.9296 0.1600 0.0000
vt 0.6605 0.5573 0.0000
vt 0.0933 0.0873 0.0000
vt 0.1280 0.0878 0.0000
vt 0.1234 0.1041 0.0000
vt 0.0915 0.1142 0.0000
vt 0.8150 0.0743 0.0000
vt 0.7956 0.0323 0.0000
vt 0.8432 0.0251 0.0000
vt 0.8510 0.0742 0.0000
vt 0.8165 0.1620 0.0000
vt 0.8451 0.1603 0.0000
vt 0.8187 0.2383 0.0000
vt 0.8477 0.2421 0.0000
vt 0.8422 0.3145 0.0000
vt 0.8134 0.3155 0.0000
vt 0.8429 0.3919 0.0000
vt 0.8142 0.3943 0.0000
vt 0.8160 0.4540 0.0000
vt 0.8455 0.4531 0.0000
vt 0.2786 0.6133 0.0000
vt 0.2325 0.0527 0.0000
vt 0.2117 0.0681 0.0000
vt 0.1788 0.0771 0.0000
vt 0.7877 0.1695 0.0000
vt 0.7887 0.2341 0.0000
vt 0.7863 0.3081 0.0000
vt 0.7878 0.3882 0.0000
vt 0.7842 0.4346 0.0000
vt 0.2451 0.6133 0.0000
vt 0.7841 0.4765 0.0000
vt 0.8069 0.5049 0.0000
# 448 texture coords

g WINGS_LP
s 1
f 1/1/1 2/2/2 3/3/3 4/4/4 
f 5/5/5 3/3/3 2/2/2 6/6/6 
f 7/7/7 5/5/5 6/6/6 8/8/8 
f 9/9/9 10/10/10 5/5/5 7/7/7 
f 4/4/4 3/3/3 11/11/11 12/12/12 
f 3/3/3 5/5/5 10/10/10 11/11/11 
f 13/13/13 14/14/14 12/12/12 11/11/11 
f 10/10/10 9/9/9 15/15/15 16/16/16 
f 16/16/16 13/13/13 11/11/11 10/10/10 
f 17/17/17 18/18/18 14/14/14 13/13/13 
f 19/19/19 20/20/20 16/16/16 15/15/15 
f 13/13/13 16/16/16 20/20/20 17/17/17 
f 18/18/18 17/17/17 21/21/21 22/22/22 
f 23/23/23 24/24/24 20/20/20 19/19/19 
f 17/17/17 20/20/20 24/24/24 21/21/21 
f 25/25/25 22/22/22 21/21/21 26/26/26 
f 27/27/27 28/28/28 24/24/24 23/23/23 
f 21/21/21 24/24/24 28/28/28 26/26/26 
f 29/29/29 25/25/25 26/26/26 30/30/30 
f 31/31/31 32/32/32 28/28/28 27/27/27 
f 30/30/30 26/26/26 33/33/33 34/34/34 
f 26/26/26 28/28/28 32/32/32 33/33/33 
f 8/8/8 35/35/35 36/36/36 7/7/7 
f 37/37/37 9/9/9 7/7/7 36/36/36 
f 38/38/38 15/15/15 9/9/9 37/37/37 
f 15/15/15 38/38/38 39/39/39 19/19/19 
f 40/40/40 23/23/23 19/19/19 39/39/39 
f 41/41/41 27/27/27 23/23/23 40/40/40 
f 31/31/31 27/27/27 41/41/41 42/42/42 
f 43/43/43 32/32/32 31/31/31 42/42/42 
f 43/43/43 44/44/44 33/33/33 32/32/32 
f 34/34/34 33/33/33 44/44/44 45/45/45 
f 46/46/46 47/47/47 36/48/36 35/49/35 
f 37/50/37 36/48/36 47/47/47 48/51/48 
f 48/51/48 49/52/49 38/53/38 37/50/37 
f 50/54/50 39/55/39 38/53/38 49/52/49 
f 39/55/39 50/54/50 51/56/51 40/57/40 
f 52/58/52 41/59/41 40/57/40 51/56/51 
f 42/60/42 41/59/41 52/58/52 53/61/53 
f 53/61/53 54/62/54 43/63/43 42/60/42 
f 54/62/54 55/64/55 44/65/44 43/63/43 
f 45/66/45 44/65/44 55/64/55 56/67/56 
f 57/68/57 46/69/46 35/70/35 8/71/8 
f 58/72/58 59/73/59 6/74/6 2/75/2 
f 59/73/59 57/68/57 8/71/8 6/74/6 
f 58/72/58 2/75/2 1/76/1 60/77/60 
f 61/78/61 62/79/62 30/30/30 34/34/34 
f 63/80/63 61/78/61 34/34/34 45/45/45 
f 63/81/63 45/66/45 56/67/56 64/82/64 
f 65/83/65 29/29/29 30/30/30 62/79/62 
f 66/84/66 25/85/25 29/86/29 65/87/65 
f 67/88/67 22/89/22 25/90/25 66/91/66 
f 68/92/68 18/93/18 22/89/22 67/88/67 
f 69/94/69 14/95/14 18/93/18 68/92/68 
f 14/95/14 69/94/69 70/96/70 12/97/12 
f 12/97/12 70/96/70 71/98/71 4/99/4 
f 72/100/72 1/101/1 4/99/4 71/98/71 
f 60/77/60 1/76/1 72/102/72 73/103/73 
f 63/104/63 64/105/64 74/106/74 61/107/61 
f 74/106/74 75/108/75 62/109/62 61/107/61 
f 65/87/65 62/109/62 75/108/75 76/110/76 
f 76/110/76 77/111/77 66/84/66 65/87/65 
f 67/88/67 66/91/66 78/112/78 68/92/68 
f 79/113/79 69/94/69 68/92/68 78/112/78 
f 70/96/70 69/94/69 79/113/79 80/114/80 
f 70/96/70 80/114/80 81/115/81 71/98/71 
f 71/98/71 81/115/81 82/116/82 72/100/72 
f 83/117/83 78/112/78 66/91/66 77/118/77 
f 78/112/78 83/117/83 84/119/84 79/113/79 
f 85/120/85 80/114/80 79/113/79 84/119/84 
f 86/121/86 81/115/81 80/114/80 85/120/85 
f 87/122/87 82/116/82 81/115/81 86/121/86 
f 88/123/88 73/103/73 72/102/72 89/124/89 
f 90/125/90 89/126/89 72/100/72 82/116/82 
f 91/127/91 90/125/90 82/116/82 87/122/87 
f 90/125/90 91/127/91 88/128/88 89/126/89 
f 92/129/92 93/130/93 94/131/94 95/132/95 
f 93/130/93 92/129/92 96/133/96 97/134/97 
f 97/134/97 96/133/96 98/135/98 99/136/99 
f 100/137/100 98/135/98 96/133/96 101/138/101 
f 102/139/102 92/129/92 95/132/95 103/140/103 
f 92/129/92 102/139/102 101/138/101 96/133/96 
f 104/141/104 102/139/102 103/140/103 105/142/105 
f 106/143/106 100/137/100 101/138/101 107/144/107 
f 107/144/107 101/138/101 102/139/102 104/141/104 
f 108/145/108 104/141/104 105/142/105 109/146/109 
f 110/147/110 106/143/106 107/144/107 111/148/111 
f 104/141/104 108/145/108 111/148/111 107/144/107 
f 112/149/112 108/145/108 109/146/109 113/150/113 
f 114/151/114 110/147/110 111/148/111 115/152/115 
f 108/145/108 112/149/112 115/152/115 111/148/111 
f 112/149/112 113/150/113 116/153/116 117/154/117 
f 118/155/118 114/151/114 115/152/115 119/156/119 
f 112/149/112 117/154/117 119/156/119 115/152/115 
f 117/154/117 116/153/116 120/157/120 121/158/121 
f 122/159/122 118/155/118 119/156/119 123/160/123 
f 124/161/124 117/154/117 121/158/121 125/162/125 
f 117/154/117 124/161/124 123/160/123 119/156/119 
f 126/163/126 127/164/127 99/136/99 98/135/98 
f 128/165/128 126/163/126 98/135/98 100/137/100 
f 129/166/129 128/165/128 100/137/100 106/143/106 
f 106/143/106 110/147/110 130/167/130 129/166/129 
f 110/147/110 114/151/114 131/168/131 130/167/130 
f 132/169/132 131/168/131 114/151/114 118/155/118 
f 132/169/132 118/155/118 122/159/122 133/170/133 
f 134/171/134 133/170/133 122/159/122 123/160/123 
f 124/161/124 135/172/135 134/171/134 123/160/123 
f 135/172/135 124/161/124 125/162/125 136/173/136 
f 46/46/46 127/174/127 126/175/126 47/47/47 
f 47/47/47 126/175/126 128/176/128 48/51/48 
f 129/177/129 49/52/49 48/51/48 128/176/128 
f 50/54/50 49/52/49 129/177/129 130/178/130 
f 130/178/130 131/179/131 51/56/51 50/54/50 
f 52/58/52 51/56/51 131/179/131 132/180/132 
f 52/58/52 132/180/132 133/181/133 53/61/53 
f 134/182/134 54/62/54 53/61/53 133/181/133 
f 135/183/135 55/64/55 54/62/54 134/182/134 
f 55/64/55 135/183/135 136/184/136 56/67/56 
f 57/68/57 99/185/99 127/186/127 46/69/46 
f 58/72/58 93/187/93 97/188/97 59/73/59 
f 59/73/59 97/188/97 99/185/99 57/68/57 
f 58/72/58 60/77/60 94/189/94 93/187/93 
f 137/190/137 125/162/125 121/158/121 138/191/138 
f 125/162/125 137/190/137 139/192/139 136/173/136 
f 56/67/56 136/184/136 139/193/139 64/82/64 
f 140/194/140 138/191/138 121/158/121 120/157/120 
f 141/195/141 140/196/140 120/197/120 116/198/116 
f 142/199/142 141/200/141 116/201/116 113/202/113 
f 143/203/143 142/199/142 113/202/113 109/204/109 
f 144/205/144 143/203/143 109/204/109 105/206/105 
f 105/206/105 103/207/103 145/208/145 144/205/144 
f 103/207/103 95/209/95 146/210/146 145/208/145 
f 147/211/147 146/210/146 95/209/95 94/212/94 
f 147/213/147 94/189/94 60/77/60 73/103/73 
f 74/106/74 64/105/64 139/214/139 137/215/137 
f 74/106/74 137/215/137 138/216/138 75/108/75 
f 75/108/75 138/216/138 140/196/140 76/110/76 
f 76/110/76 140/196/140 141/195/141 77/111/77 
f 142/199/142 143/203/143 148/217/148 141/200/141 
f 149/218/149 148/217/148 143/203/143 144/205/144 
f 149/218/149 144/205/144 145/208/145 150/219/150 
f 145/208/145 146/210/146 151/220/151 150/219/150 
f 146/210/146 147/211/147 152/221/152 151/220/151 
f 83/117/83 77/118/77 141/200/141 148/217/148 
f 148/217/148 149/218/149 84/119/84 83/117/83 
f 85/120/85 84/119/84 149/218/149 150/219/150 
f 86/121/86 85/120/85 150/219/150 151/220/151 
f 87/122/87 86/121/86 151/220/151 152/221/152 
f 147/213/147 73/103/73 88/123/88 153/222/153 
f 154/223/154 152/221/152 147/211/147 153/224/153 
f 91/127/91 87/122/87 152/221/152 154/223/154 
f 154/223/154 153/224/153 88/128/88 91/127/91 
f 155/225/155 156/226/156 157/227/157 158/228/158 
f 159/229/159 157/227/157 156/226/156 160/230/160 
f 161/231/161 159/229/159 160/230/160 162/232/162 
f 163/233/163 164/234/164 159/229/159 161/231/161 
f 158/228/158 157/227/157 165/235/165 166/236/166 
f 157/227/157 159/229/159 164/234/164 165/235/165 
f 167/237/167 168/238/168 166/236/166 165/235/165 
f 164/234/164 163/233/163 169/239/169 170/240/170 
f 170/240/170 167/237/167 165/235/165 164/234/164 
f 171/241/171 172/242/172 168/238/168 167/237/167 
f 173/243/173 174/244/174 170/240/170 169/239/169 
f 167/237/167 170/240/170 174/244/174 171/241/171 
f 172/242/172 171/241/171 175/245/175 176/246/176 
f 177/247/177 178/248/178 174/244/174 173/243/173 
f 171/241/171 174/244/174 178/248/178 175/245/175 
f 179/249/179 176/246/176 175/245/175 180/250/180 
f 181/251/181 182/252/182 178/248/178 177/247/177 
f 175/245/175 178/248/178 182/252/182 180/250/180 
f 183/253/183 179/249/179 180/250/180 184/254/184 
f 185/255/185 186/256/186 182/252/182 181/251/181 
f 184/254/184 180/250/180 187/257/187 188/258/188 
f 180/250/180 182/252/182 186/256/186 187/257/187 
f 162/232/162 189/259/189 190/260/190 161/231/161 
f 191/261/191 163/233/163 161/231/161 190/260/190 
f 192/262/192 169/239/169 163/233/163 191/261/191 
f 169/239/169 192/262/192 193/263/193 173/243/173 
f 194/264/194 177/247/177 173/243/173 193/263/193 
f 195/265/195 181/251/181 177/247/177 194/264/194 
f 185/255/185 181/251/181 195/265/195 196/266/196 
f 197/267/197 186/256/186 185/255/185 196/266/196 
f 197/267/197 198/268/198 187/257/187 186/256/186 
f 188/258/188 187/257/187 198/268/198 199/269/199 
f 200/270/200 201/271/201 190/272/190 189/273/189 
f 191/274/191 190/272/190 201/271/201 202/275/202 
f 202/275/202 203/276/203 192/277/192 191/274/191 
f 204/278/204 193/279/193 192/277/192 203/276/203 
f 193/279/193 204/278/204 205/280/205 194/281/194 
f 206/282/206 195/283/195 194/281/194 205/280/205 
f 196/284/196 195/283/195 206/282/206 207/285/207 
f 207/285/207 208/286/208 197/287/197 196/284/196 
f 208/286/208 209/288/209 198/289/198 197/287/197 
f 199/290/199 198/289/198 209/288/209 210/291/210 
f 211/292/211 200/293/200 189/294/189 162/295/162 
f 212/296/212 213/297/213 160/298/160 156/299/156 
f 213/297/213 211/292/211 162/295/162 160/298/160 
f 212/296/212 156/299/156 155/300/155 214/301/214 
f 215/302/215 216/303/216 184/254/184 188/258/188 
f 217/304/217 215/302/215 188/258/188 199/269/199 
f 217/305/217 199/290/199 210/291/210 218/306/218 
f 219/307/219 183/253/183 184/254/184 216/303/216 
f 220/308/220 179/309/179 183/310/183 219/311/219 
f 221/312/221 176/313/176 179/314/179 220/315/220 
f 222/316/222 172/317/172 176/313/176 221/312/221 
f 223/318/223 168/319/168 172/317/172 222/316/222 
f 168/319/168 223/318/223 224/320/224 166/321/166 
f 166/321/166 224/320/224 225/322/225 158/323/158 
f 226/324/226 155/325/155 158/323/158 225/322/225 
f 214/301/214 155/300/155 226/326/226 227/327/227 
f 217/328/217 218/329/218 228/330/228 215/331/215 
f 228/330/228 229/332/229 216/333/216 215/331/215 
f 219/311/219 216/333/216 229/332/229 230/334/230 
f 230/334/230 231/335/231 220/308/220 219/311/219 
f 221/312/221 220/315/220 232/336/232 222/316/222 
f 233/337/233 223/318/223 222/316/222 232/336/232 
f 224/320/224 223/318/223 233/337/233 234/338/234 
f 224/320/224 234/338/234 235/339/235 225/322/225 
f 225/322/225 235/339/235 236/340/236 226/324/226 
f 237/341/237 232/336/232 220/315/220 231/342/231 
f 232/336/232 237/341/237 238/343/238 233/337/233 
f 239/344/239 234/338/234 233/337/233 238/343/238 
f 240/345/240 235/339/235 234/338/234 239/344/239 
f 241/346/241 236/340/236 235/339/235 240/345/240 
f 242/347/242 227/327/227 226/326/226 243/348/243 
f 244/349/244 243/350/243 226/324/226 236/340/236 
f 245/351/245 244/349/244 236/340/236 241/346/241 
f 244/349/244 245/351/245 242/352/242 243/350/243 
f 246/353/246 247/354/247 248/355/248 249/356/249 
f 247/354/247 246/353/246 250/357/250 251/358/251 
f 251/358/251 250/357/250 252/359/252 253/360/253 
f 254/361/254 252/359/252 250/357/250 255/362/255 
f 256/363/256 246/353/246 249/356/249 257/364/257 
f 246/353/246 256/363/256 255/362/255 250/357/250 
f 258/365/258 256/363/256 257/364/257 259/366/259 
f 260/367/260 254/361/254 255/362/255 261/368/261 
f 261/368/261 255/362/255 256/363/256 258/365/258 
f 262/369/262 258/365/258 259/366/259 263/370/263 
f 264/371/264 260/367/260 261/368/261 265/372/265 
f 258/365/258 262/369/262 265/372/265 261/368/261 
f 266/373/266 262/369/262 263/370/263 267/374/267 
f 268/375/268 264/371/264 265/372/265 269/376/269 
f 262/369/262 266/373/266 269/376/269 265/372/265 
f 266/373/266 267/374/267 270/377/270 271/378/271 
f 272/379/272 268/375/268 269/376/269 273/380/273 
f 266/373/266 271/378/271 273/380/273 269/376/269 
f 271/378/271 270/377/270 274/381/274 275/382/275 
f 276/383/276 272/379/272 273/380/273 277/384/277 
f 278/385/278 271/378/271 275/382/275 279/386/279 
f 271/378/271 278/385/278 277/384/277 273/380/273 
f 280/387/280 281/388/281 253/360/253 252/359/252 
f 282/389/282 280/387/280 252/359/252 254/361/254 
f 283/390/283 282/389/282 254/361/254 260/367/260 
f 260/367/260 264/371/264 284/391/284 283/390/283 
f 264/371/264 268/375/268 285/392/285 284/391/284 
f 286/393/286 285/392/285 268/375/268 272/379/272 
f 286/393/286 272/379/272 276/383/276 287/394/287 
f 288/395/288 287/394/287 276/383/276 277/384/277 
f 278/385/278 289/396/289 288/395/288 277/384/277 
f 289/396/289 278/385/278 279/386/279 290/397/290 
f 200/270/200 281/398/281 280/399/280 201/271/201 
f 201/271/201 280/399/280 282/400/282 202/275/202 
f 283/401/283 203/276/203 202/275/202 282/400/282 
f 204/278/204 203/276/203 283/401/283 284/402/284 
f 284/402/284 285/403/285 205/280/205 204/278/204 
f 206/282/206 205/280/205 285/403/285 286/404/286 
f 206/282/206 286/404/286 287/405/287 207/285/207 
f 288/406/288 208/286/208 207/285/207 287/405/287 
f 289/407/289 209/288/209 208/286/208 288/406/288 
f 209/288/209 289/407/289 290/408/290 210/291/210 
f 211/292/211 253/409/253 281/410/281 200/293/200 
f 212/296/212 247/411/247 251/412/251 213/297/213 
f 213/297/213 251/412/251 253/409/253 211/292/211 
f 212/296/212 214/301/214 248/413/248 247/411/247 
f 291/414/291 279/386/279 275/382/275 292/415/292 
f 279/386/279 291/414/291 293/416/293 290/397/290 
f 210/291/210 290/408/290 293/417/293 218/306/218 
f 294/418/294 292/415/292 275/382/275 274/381/274 
f 295/419/295 294/420/294 274/421/274 270/422/270 
f 296/423/296 295/424/295 270/425/270 267/426/267 
f 297/427/297 296/423/296 267/426/267 263/428/263 
f 298/429/298 297/427/297 263/428/263 259/430/259 
f 259/430/259 257/431/257 299/432/299 298/429/298 
f 257/431/257 249/433/249 300/434/300 299/432/299 
f 301/435/301 300/434/300 249/433/249 248/436/248 
f 301/437/301 248/413/248 214/301/214 227/327/227 
f 228/330/228 218/329/218 293/438/293 291/439/291 
f 228/330/228 291/439/291 292/440/292 229/332/229 
f 229/332/229 292/440/292 294/420/294 230/334/230 
f 230/334/230 294/420/294 295/419/295 231/335/231 
f 296/423/296 297/427/297 302/441/302 295/424/295 
f 303/442/303 302/441/302 297/427/297 298/429/298 
f 303/442/303 298/429/298 299/432/299 304/443/304 
f 299/432/299 300/434/300 305/444/305 304/443/304 
f 300/434/300 301/435/301 306/445/306 305/444/305 
f 237/341/237 231/342/231 295/424/295 302/441/302 
f 302/441/302 303/442/303 238/343/238 237/341/237 
f 239/344/239 238/343/238 303/442/303 304/443/304 
f 240/345/240 239/344/239 304/443/304 305/444/305 
f 241/346/241 240/345/240 305/444/305 306/445/306 
f 301/437/301 227/327/227 242/347/242 307/446/307 
f 308/447/308 306/445/306 301/435/301 307/448/307 
f 245/351/245 241/346/241 306/445/306 308/447/308 
f 308/447/308 307/448/307 242/352/242 245/351/245 
# 304 polygons

